{
    "page": 1,
    "total_results": 133,
    "total_pages": 7,
    "results": [
        {
            "popularity": 111.181,
            "vote_count": 1789,
            "video": false,
            "poster_path": "\/pjeMs3yqRmFL3giJy4PMXWZTTPa.jpg",
            "id": 330457,
            "adult": false,
            "backdrop_path": "\/xJWPZIYOEFIjZpBL7SVBGnzRYXp.jpg",
            "original_language": "en",
            "original_title": "Frozen II",
            "genre_ids": [
                12,
                16,
                10402,
                10751
            ],
            "title": "Frozen II",
            "vote_average": 7,
            "overview": "Elsa, Anna, Kristoff and Olaf head far into the forest to learn the truth about an ancient mystery of their kingdom.",
            "release_date": "2019-11-20"
        },
        {
            "popularity": 45.264,
            "vote_count": 10933,
            "video": false,
            "poster_path": "\/eFnGmj63QPUpK7QUWSOUhypIQOT.jpg",
            "id": 109445,
            "adult": false,
            "backdrop_path": "\/cN9Nbwh66TRcj2gBE8cSEZulsx3.jpg",
            "original_language": "en",
            "original_title": "Frozen",
            "genre_ids": [
                12,
                16,
                10751
            ],
            "title": "Frozen",
            "vote_average": 7.3,
            "overview": "Young princess Anna of Arendelle dreams about finding true love at her sister Elsa’s coronation. Fate takes her on a dangerous journey in an attempt to end the eternal winter that has fallen over the kingdom. She's accompanied by ice delivery man Kristoff, his reindeer Sven, and snowman Olaf. On an adventure where she will find out what friendship, courage, family, and true love really means.",
            "release_date": "2013-11-27"
        },
        {
            "popularity": 16.011,
            "vote_count": 929,
            "video": false,
            "poster_path": "\/As8WTtxXs9e3cBit3ztTf7zoRmm.jpg",
            "id": 460793,
            "adult": false,
            "backdrop_path": "\/9K4QqQZg4TVXcxBGDiVY4Aey3Rn.jpg",
            "original_language": "en",
            "original_title": "Olaf's Frozen Adventure",
            "genre_ids": [
                12,
                16,
                35,
                14,
                10402,
                10751
            ],
            "title": "Olaf's Frozen Adventure",
            "vote_average": 6.2,
            "overview": "Olaf is on a mission to harness the best holiday traditions for Anna, Elsa, and Kristoff.",
            "release_date": "2017-10-27"
        },
        {
            "popularity": 13.771,
            "id": 326359,
            "video": false,
            "vote_count": 1174,
            "vote_average": 6.8,
            "title": "Frozen Fever",
            "release_date": "2015-03-09",
            "original_language": "en",
            "original_title": "Frozen Fever",
            "genre_ids": [
                12,
                16,
                10751
            ],
            "backdrop_path": "\/fKtF8xTx5PGf1PE9vTvtCwYbi4a.jpg",
            "adult": false,
            "overview": "On Anna's birthday, Elsa and Kristoff are determined to give her the best celebration ever, but Elsa's icy powers may put more than just the party at risk.",
            "poster_path": "\/lKJiVPzsAO9IJ4LKWXZ8vkR2bg4.jpg"
        },
        {
            "popularity": 11.269,
            "vote_count": 1097,
            "video": false,
            "poster_path": "\/lfZNJlAZoheNVHPBhTTlpkBQj4B.jpg",
            "id": 44363,
            "adult": false,
            "backdrop_path": "\/tLS76JVfBWJ4UICTbKVT60a307O.jpg",
            "original_language": "en",
            "original_title": "Frozen",
            "genre_ids": [
                53
            ],
            "title": "Frozen",
            "vote_average": 5.8,
            "overview": "When three skiers find themselves stranded on a chair lift at a New England ski resort that has closed for the next week, they are forced to make life or death choices that prove to be more perilous than staying put and freezing to death.",
            "release_date": "2010-02-05"
        },
        {
            "popularity": 10.146,
            "vote_count": 167,
            "video": false,
            "poster_path": "\/AcjPx180lhs8XXgdPsZv0oatTky.jpg",
            "id": 10183,
            "adult": false,
            "backdrop_path": "\/9oPSK2S4FJFSb8AkM0002M1MJWX.jpg",
            "original_language": "en",
            "original_title": "Frozen River",
            "genre_ids": [
                18
            ],
            "title": "Frozen River",
            "vote_average": 6.5,
            "overview": "Ray Eddy, an upstate New York trailer mom, is lured into the world of illegal immigrant smuggling. Broke after her husband takes off with the down payment for their new doublewide, Ray reluctantly teams up with Lila, a smuggler, and the two begin making runs across the frozen St. Lawrence River carrying illegal Chinese and Pakistani immigrants in the trunk of Ray's Dodge Spirit.",
            "release_date": "2008-08-01"
        },
        {
            "popularity": 9.822,
            "vote_count": 832,
            "video": false,
            "poster_path": "\/2bD6kKCqzsHdcDRxfpMJjSHQmey.jpg",
            "id": 199373,
            "adult": false,
            "backdrop_path": "\/ezrXYtsPg1hpSk0wXG8zUIIMqMA.jpg",
            "original_language": "en",
            "original_title": "The Frozen Ground",
            "genre_ids": [
                80,
                53
            ],
            "title": "The Frozen Ground",
            "vote_average": 6.3,
            "overview": "An Alaska State Trooper partners with a young woman who escaped the clutches of serial killer Robert Hansen to bring the murderer to justice. Based on actual events.",
            "release_date": "2013-07-11"
        },
        {
            "popularity": 3.2,
            "id": 26041,
            "video": false,
            "vote_count": 11,
            "vote_average": 6,
            "title": "Frozen",
            "release_date": "2005-03-12",
            "original_language": "en",
            "original_title": "Frozen",
            "genre_ids": [
                53
            ],
            "backdrop_path": "\/tjEFzlYMY0bDqJEESqUCjMADVZD.jpg",
            "adult": false,
            "overview": "It's two years since the mysterious disappearance of Kath Swarbrick's older sister Annie, but Kath remains haunted by a need to know what happened. When police investigations wind down, Kath continues the search herself. She gets nowhere until she steals some CCTV footage of her sister on her final day. Visiting the spot where Annie was filmed, Kath becomes convinced she has found a portal to another reality and from this portal Kath is trying to say something.",
            "poster_path": "\/tAe8xF832tbrezAXtUzGhwiv6CS.jpg"
        },
        {
            "popularity": 4.137,
            "id": 150211,
            "video": false,
            "vote_count": 21,
            "vote_average": 4.2,
            "title": "The Frozen",
            "release_date": "2012-10-10",
            "original_language": "en",
            "original_title": "The Frozen",
            "genre_ids": [
                27,
                53
            ],
            "backdrop_path": "\/b6IS4m2piK4UYhnAftRONfMyALK.jpg",
            "adult": false,
            "overview": "After a harrowing snowmobile accident, a young couple is stranded in the woods and must survive while waiting for help to arrive. Events take a turn for the worse after the disappearance of Emma's boyfriend, leaving her on her own not only to battle the elements, but also to elude a mysterious hunter who is tracking her through the forest.",
            "poster_path": "\/8cxilLbnpiepLt7FDL3nEm5J8ue.jpg"
        },
        {
            "popularity": 4.025,
            "id": 64375,
            "video": false,
            "vote_count": 8,
            "vote_average": 5.1,
            "title": "Frozen Impact",
            "release_date": "2003-03-14",
            "original_language": "en",
            "original_title": "Frozen Impact",
            "genre_ids": [
                28,
                18,
                53,
                10770
            ],
            "backdrop_path": null,
            "adult": false,
            "overview": "",
            "poster_path": "\/wbBj3fsIxEFBzxaLV8Mi1KSSa0Z.jpg"
        },
        {
            "popularity": 4.956,
            "id": 51364,
            "video": false,
            "vote_count": 29,
            "vote_average": 6.1,
            "title": "The Frozen North",
            "release_date": "1922-08-28",
            "original_language": "en",
            "original_title": "The Frozen North",
            "genre_ids": [
                35,
                37
            ],
            "backdrop_path": "\/ugv16G4ZkRMRFqICxQQVdUuWpXl.jpg",
            "adult": false,
            "overview": "This satirical parody of William S. Hart's melodramatic films finds Buster in the frozen north, \"last stop on the subway.\" He uses a wanted poster as his partner in robbing a gambling house. When he thinks he spies his wife making love to another man he shoots them both only to learn it isn't his cabin after all.",
            "poster_path": "\/r1Vszwjhmlbjv3aDKPYAFIJX9U2.jpg"
        },
        {
            "popularity": 4.117,
            "vote_count": 16,
            "video": false,
            "poster_path": "\/cJr7U0Is7p9qDKZ2CM81KjxQU70.jpg",
            "id": 491408,
            "adult": false,
            "backdrop_path": "\/sPXxT3GbhZofHWRwePhr6QHmfZW.jpg",
            "original_language": "en",
            "original_title": "Frozen in Love",
            "genre_ids": [
                10770
            ],
            "title": "Frozen in Love",
            "vote_average": 6.5,
            "overview": "When struggling bookstore owner Mary and the bad boy of professional hockey, Adam, are teamed together to help facilitate an image makeover for the other, they soon realize that opposites attract and they find themselves unexpectedly frozen in love.",
            "release_date": "2018-01-13"
        },
        {
            "popularity": 5.044,
            "vote_count": 21,
            "video": false,
            "poster_path": "\/6acUjFJzv6J7IE2h75zVMCkJr4k.jpg",
            "id": 413580,
            "adult": false,
            "backdrop_path": "\/nojqcQUHEaykoYj1W4u53QzpJMI.jpg",
            "original_language": "en",
            "original_title": "Dawson City: Frozen Time",
            "genre_ids": [
                99
            ],
            "title": "Dawson City: Frozen Time",
            "vote_average": 7.6,
            "overview": "The true history of a collection of some 500 films dating from 1910s to 1920s, which were lost for over 50 years until being discovered buried in a sub-arctic swimming pool deep in the Yukon Territory, in Dawson City, located about 350 miles south of the Arctic Circle.",
            "release_date": "2017-06-09"
        },
        {
            "popularity": 4.627,
            "vote_count": 27,
            "video": false,
            "poster_path": "\/faGsrQNpq2Dc8FCrOG2eAQy1TVN.jpg",
            "id": 431562,
            "adult": false,
            "backdrop_path": "\/42bLckwdc7R0s7lGzQfMwbztNOG.jpg",
            "original_language": "en",
            "original_title": "LEGO Frozen Northern Lights",
            "genre_ids": [
                16,
                10751
            ],
            "title": "LEGO Frozen Northern Lights",
            "vote_average": 6.9,
            "overview": "Elsa, Anna and friends search for the Northern Lights.",
            "release_date": "2016-07-05"
        },
        {
            "popularity": 1.276,
            "id": 170986,
            "video": false,
            "vote_count": 2,
            "vote_average": 8.5,
            "title": "Frozen",
            "release_date": "2007-07-21",
            "original_language": "en",
            "original_title": "Frozen",
            "genre_ids": [
                18
            ],
            "backdrop_path": "\/nRDSqzSc4DLiDjMTwB9KLHHjkGl.jpg",
            "adult": false,
            "overview": "This is a touching and somber journey of Lasya, who lives with her father Karma and younger brother Chomo in a remote village in the Himalayas. Pristine snow capped mountains surround their tiny hamlet and barren harsh land stretches for miles into nowhere. One day the army moves in, settles a hundred yards across their doorstep. The last bit of comfort the family draws from their familiar surroundings changes into a harsh ceaseless irreversible conflict. The film depicts the life of this family whose dream like existence is interrupted by inevitable odds, one after the other.",
            "poster_path": "\/zhJAHdhjSazDiOrVwOgfhHCLqI8.jpg"
        },
        {
            "popularity": 1.505,
            "id": 35725,
            "video": false,
            "vote_count": 3,
            "vote_average": 2.7,
            "title": "Frozen Kiss",
            "release_date": "2009-12-11",
            "original_language": "en",
            "original_title": "Frozen Kiss",
            "genre_ids": [
                18,
                53
            ],
            "backdrop_path": "\/2l1zlz2gkyL44i2Re2PcUyXEPBQ.jpg",
            "adult": false,
            "overview": "On a freezing night in a small rural town, police, friends and family attempt to find a young couple who have disappeared after taking drugs at a party. Based on a true story.",
            "poster_path": "\/BrCZJPZwGY9taspmt2PSdi5Ta2.jpg"
        },
        {
            "popularity": 3.379,
            "id": 64078,
            "video": false,
            "vote_count": 14,
            "vote_average": 6.4,
            "title": "The Frozen Ghost",
            "release_date": "1945-06-01",
            "original_language": "en",
            "original_title": "The Frozen Ghost",
            "genre_ids": [
                14,
                9648
            ],
            "backdrop_path": "\/ipgLKNmncP4iRC8VixCRX5BMzCy.jpg",
            "adult": false,
            "overview": "When a man dies of a heart attack, a stage and radio mentalist believes he has willed him to die because he was angry with the man.  Riddled with guilt, the mentalist cancels further shows,  breaks off his engagement to his female partner, who can read minds while in a hypnotic trance, and takes refuge in the eerie wax-museum-cum-home of another woman friend.",
            "poster_path": "\/dolExaOYDQwzG8ZMEFtOM0iw79N.jpg"
        },
        {
            "popularity": 1.807,
            "vote_count": 2,
            "video": false,
            "poster_path": "\/gdmK5JZSpVDH1gRda4bdGsDIUue.jpg",
            "id": 117773,
            "adult": false,
            "backdrop_path": "\/erYaxkw61QqqhwTL3rFI4VaMm9D.jpg",
            "original_language": "en",
            "original_title": "Frozen Assets",
            "genre_ids": [
                35
            ],
            "title": "Frozen Assets",
            "vote_average": 3,
            "overview": "A man is hired to run a bank which turns out to be a sperm bank.",
            "release_date": "1992-10-23"
        },
        {
            "popularity": 2.858,
            "id": 410895,
            "video": false,
            "vote_count": 1,
            "vote_average": 8,
            "title": "Frozen In Fear",
            "release_date": "2001-09-11",
            "original_language": "en",
            "original_title": "Frozen In Fear",
            "genre_ids": [
                9648,
                27,
                53,
                18,
                10749
            ],
            "backdrop_path": "\/2Lfb1rFKrS3y60KchirpbBu0QEx.jpg",
            "adult": false,
            "overview": "Frozen in Fear stars Eric Roberts as Sean, a deeply disturbed but talented artist. When an East Coast art dealer (Catherine Oxenberg) becomes intrigued by Sean's work, she travels to his small Montana hometown to meet him. Sean suffered a horrific moment as a child when he witnessed the murder of his own mother. Now there are women missing from his usually sleepy hometown.",
            "poster_path": "\/k3SWXDmza2WamWBX3NB35t4SQOI.jpg"
        },
        {
            "popularity": 1.721,
            "id": 85766,
            "video": false,
            "vote_count": 9,
            "vote_average": 6.7,
            "title": "The Frozen North",
            "release_date": "2006-12-25",
            "original_language": "en",
            "original_title": "The Frozen North",
            "genre_ids": [
                99,
                36
            ],
            "backdrop_path": "\/syLUnqoeJwF90pHvS6ut6GkxqLb.jpg",
            "adult": false,
            "overview": "For more than 30 years a man by the name of Dick Proenneke lived alone in the Alaskan Bush. His only neighbors were the wolves and grizzly bears and his only transportation was his canoe and a good set of legs. Through the years, Dick kept written journals of daily life at Twin Lakes but would also document much of his adventure on film with his 16 mms Bolex camera. The Frozen North is Dick's own filmed account of his life alone in this \"One Man's Wilderness\", produced from original footage not included in \"Alone in the Wilderness\" or \"Alaska Silence &amp; Solitude\".",
            "poster_path": "\/kl74JUhjl8qxUYvwPaHNh5Whf6h.jpg"
        }
    ]
}



